[
  {
    "key": "ctrl+`",
    "command": "workbench.action.togglePanel"
  },
  {
    "key": "f9",
    "command": "editor.action.sortLinesAscending"
  },
  {
    "key": "f10",
    "command": "editor.action.sortLinesDescending"
  }
]
